<svg xmlns="http://www.w3.org/2000/svg" width="7.73" height="15" viewBox="0 0 7.73 15">
  <title>icon-facebook</title>
  <g id="Layer_2" data-name="Layer 2">
    <g id="Layer_1-2" data-name="Layer 1">
      <path d="M2.26,8.29H0V5.62H2.26V3.52A3.5,3.5,0,0,1,3.19.92,3.43,3.43,0,0,1,5.68,0,14.09,14.09,0,0,1,7.73.12V2.49H6.33a1.39,1.39,0,0,0-1.09.35A1.56,1.56,0,0,0,5,3.78V5.62H7.5L7.15,8.29H5V15H2.26Z" fill="#fff"/>
    </g>
  </g>
</svg>
