<svg xmlns="http://www.w3.org/2000/svg" width="27.1" height="23.5" viewBox="0 0 27.1 23.5">
  <title>icon-cart</title>
  <g id="Layer_2" data-name="Layer 2">
    <g id="Guides">
      <g>
        <polygon id="Fill-386" points="24.8 17.6 6.8 17.6 4.1 5.9 26.6 5.9 24.8 17.6" fill="#f4f4f4"/>
        <polygon id="Stroke-1913" points="24.8 17.6 6.8 17.6 4.1 5.9 26.6 5.9 24.8 17.6" fill="none" stroke="#ccc" stroke-linecap="round" stroke-linejoin="round"/>
        <polyline id="Stroke-1914" points="3.2 2 7.6 21.2 9.5 21.2" fill="none" stroke="#ccc" stroke-linecap="round" stroke-linejoin="round"/>
        <path id="Stroke-1915" d="M3.2,1.9A1.3,1.3,0,0,1,1.9,3.2,1.3,1.3,0,0,1,.5,1.9,1.4,1.4,0,0,1,1.9.5,1.3,1.3,0,0,1,3.2,1.9Z" fill="none" stroke="#ccc" stroke-linecap="round" stroke-linejoin="round"/>
        <path id="Stroke-1916" d="M13.1,21.2a1.8,1.8,0,1,1-1.8-1.8A1.8,1.8,0,0,1,13.1,21.2Z" fill="none" stroke="#ccc" stroke-linecap="round" stroke-linejoin="round"/>
        <path id="Stroke-1917" d="M22.1,21.2a1.8,1.8,0,1,1-1.8-1.8A1.8,1.8,0,0,1,22.1,21.2Z" fill="none" stroke="#ccc" stroke-linecap="round" stroke-linejoin="round"/>
        <path id="Stroke-1918" d="M13.1,21.2h5.4" fill="none" stroke="#ccc" stroke-linecap="round" stroke-linejoin="round"/>
        <path id="Stroke-1919" d="M22.1,21.2h1.8" fill="none" stroke="#ccc" stroke-linecap="round" stroke-linejoin="round"/>
      </g>
    </g>
  </g>
</svg>
