<svg xmlns="http://www.w3.org/2000/svg" width="57.47" height="15.3" viewBox="0 0 57.47 15.3">
  <title>icon-paypal</title>
  <g id="Layer_2" data-name="Layer 2">
    <g id="Layer_1-2" data-name="Layer 1">
      <path d="M6.91,0A8.74,8.74,0,0,1,8,.06a4,4,0,0,1,.9.22,4.36,4.36,0,0,1,.75.37,1.91,1.91,0,0,1,.53.47,2,2,0,0,1,.4.56,2.17,2.17,0,0,1,.22.68,4.93,4.93,0,0,1,.06.78,7.54,7.54,0,0,1-.06.9,6.22,6.22,0,0,1-.59,1.84,4.15,4.15,0,0,1-1,1.3A4,4,0,0,1,7.65,8a6.38,6.38,0,0,1-2,.28H4.23A.73.73,0,0,0,4,8.3l-.18.1a.27.27,0,0,0-.13.18.37.37,0,0,1-.09.19l-.5,3.11a.4.4,0,0,1-.06.22,1,1,0,0,1-.13.15.32.32,0,0,1-.18.1l-.19,0H.37l-.12,0a.5.5,0,0,1-.13-.1A.47.47,0,0,1,0,12.13.27.27,0,0,1,0,12L1.8.5A.35.35,0,0,0,1.9.31.35.35,0,0,1,2,.12.82.82,0,0,1,2.21,0a.69.69,0,0,1,.22,0ZM7.4,4.17a1.26,1.26,0,0,0,.06-.38,1.87,1.87,0,0,0,0-.34,1.31,1.31,0,0,0-.09-.28l-.12-.25a.89.89,0,0,0-.35-.28,1.73,1.73,0,0,0-.46-.12,4.86,4.86,0,0,0-.56,0H4.91a.27.27,0,0,0-.12,0l-.09.06a.19.19,0,0,0-.06.1l-.1.12-.43,3h.68a8.44,8.44,0,0,0,.87,0,2.66,2.66,0,0,0,.81-.18,1.53,1.53,0,0,0,.62-.47A1.73,1.73,0,0,0,7.4,4.17Zm12.88-.06a.29.29,0,0,1,.15.06l.13.09a.31.31,0,0,1,.06.13.49.49,0,0,1,0,.15l-1.18,7.34a.4.4,0,0,1-.06.22.57.57,0,0,1-.16.15.54.54,0,0,1-.18.1.78.78,0,0,1-.22,0H16.92a.27.27,0,0,1-.12,0,.31.31,0,0,1-.13-.1.47.47,0,0,1-.09-.12.27.27,0,0,1,0-.12l.12-.63a5.22,5.22,0,0,1-.75.63,4,4,0,0,1-.93.43,4,4,0,0,1-1.3.19,5.32,5.32,0,0,1-.78-.06,3.45,3.45,0,0,1-.75-.22,6,6,0,0,1-.62-.34,2.47,2.47,0,0,1-.53-.5,4.05,4.05,0,0,1-.44-.69,6.51,6.51,0,0,1-.31-.77,3,3,0,0,1-.12-.87,8,8,0,0,1,.06-1,6.64,6.64,0,0,1,.59-1.71,5,5,0,0,1,1.06-1.37,4.81,4.81,0,0,1,1.46-.9A4.59,4.59,0,0,1,15,3.92a4.74,4.74,0,0,1,.75.06,5.25,5.25,0,0,1,.71.16,1.84,1.84,0,0,1,.62.28,1.78,1.78,0,0,1,.47.43l.13.19.06-.62.09-.1.06-.09a.18.18,0,0,1,.1-.09.27.27,0,0,1,.12,0Zm-3,4.16v-.4a2.63,2.63,0,0,0,0-.41,1.45,1.45,0,0,0-.12-.37,1.54,1.54,0,0,0-.22-.31l-.28-.25a1.41,1.41,0,0,0-.34-.19,2.62,2.62,0,0,0-.38-.09,2.72,2.72,0,0,0-.43,0,2.2,2.2,0,0,0-.84.16,2.79,2.79,0,0,0-.72.4,2.48,2.48,0,0,0-.53.62,2.54,2.54,0,0,0-.28.87,1.35,1.35,0,0,0-.06.41,2.5,2.5,0,0,0,0,.4,1.26,1.26,0,0,0,.13.37,1.07,1.07,0,0,0,.22.32l.28.25a1,1,0,0,0,.34.18,2.49,2.49,0,0,0,.37.09,1.94,1.94,0,0,0,.44,0,2.67,2.67,0,0,0,.87-.16,2.48,2.48,0,0,0,.74-.4A2.17,2.17,0,0,0,17,9.14,2.08,2.08,0,0,0,17.29,8.27ZM31.66,4.11a.4.4,0,0,1,.22.06.29.29,0,0,1,.12.15.68.68,0,0,1,0,.19.56.56,0,0,1-.06.22L24.82,15.05a.35.35,0,0,1-.12.1l-.13.06-.12.06-.13,0H22.14a.24.24,0,0,1-.18-.06.75.75,0,0,1-.13-.16.32.32,0,0,1-.06-.18.23.23,0,0,1,.06-.16l2.24-3.17-2.36-7V4.45a.23.23,0,0,1,.06-.16l.13-.12a.24.24,0,0,1,.18-.06H24.2l.15,0a.82.82,0,0,1,.19.09.61.61,0,0,1,.16.16.37.37,0,0,1,.06.21L26,8.77l3-4.35.12-.13a.38.38,0,0,1,.13-.09l.12-.06.12,0ZM38.75,0a8.78,8.78,0,0,1,1.06.06,4,4,0,0,1,.9.22,4.36,4.36,0,0,1,.75.37,3.58,3.58,0,0,1,.59.47,3.78,3.78,0,0,1,.34.56,2.47,2.47,0,0,1,.22.68,4.93,4.93,0,0,1,.06.78,7.54,7.54,0,0,1-.06.9A6.52,6.52,0,0,1,42,5.88a4.15,4.15,0,0,1-1,1.3A4,4,0,0,1,39.5,8a6.38,6.38,0,0,1-2,.28H36.08l-.19,0a.67.67,0,0,0-.19.1.7.7,0,0,0-.12.18.55.55,0,0,0-.06.19L35,12.07a.27.27,0,0,1,0,.12.57.57,0,0,1-.1.13.17.17,0,0,1-.12.06H32.28a.42.42,0,0,1-.18,0,.38.38,0,0,1-.13-.1.47.47,0,0,1-.09-.12.1.1,0,0,1,0-.12L33.71.5a.4.4,0,0,1,.07-.19A1,1,0,0,1,33.9.12.37.37,0,0,1,34.09,0a1,1,0,0,1,.25,0Zm.56,4.17V3.79a1.87,1.87,0,0,0,0-.34l-.06-.28a.55.55,0,0,0-.16-.25.79.79,0,0,0-.34-.28,1.73,1.73,0,0,0-.46-.12,4.58,4.58,0,0,0-.53,0h-.91a.27.27,0,0,0-.12,0l-.12.06a.17.17,0,0,0-.1.1.27.27,0,0,0,0,.12l-.5,3h.69a8.44,8.44,0,0,0,.87,0,2.66,2.66,0,0,0,.81-.18,1.6,1.6,0,0,0,.62-.47A2.25,2.25,0,0,0,39.31,4.17Zm12.82-.06a.29.29,0,0,1,.15.06l.13.09a.31.31,0,0,1,.06.13.49.49,0,0,1,0,.15l-1.18,7.34a.4.4,0,0,1-.06.22l-.13.15a.31.31,0,0,1-.19.1l-.18,0H48.83a.47.47,0,0,1-.19,0,.35.35,0,0,1-.12-.1l-.1-.12s0-.08,0-.12l.06-.63a5.22,5.22,0,0,1-.75.63,4,4,0,0,1-.93.43,3.81,3.81,0,0,1-1.25.19,4.92,4.92,0,0,1-.8-.06,3.53,3.53,0,0,1-.72-.22c-.23-.11-.45-.22-.65-.34a2,2,0,0,1-.56-.5,4.05,4.05,0,0,1-.44-.69,4.17,4.17,0,0,1-.28-.77A5.71,5.71,0,0,1,42,9.18a5.27,5.27,0,0,1,0-1,5.74,5.74,0,0,1,1.68-3.08,4.34,4.34,0,0,1,1.43-.9,4.59,4.59,0,0,1,1.68-.31,5.13,5.13,0,0,1,.81.06,4.24,4.24,0,0,1,.68.16,1.88,1.88,0,0,1,.59.28,1.94,1.94,0,0,1,.47.43l.12.19.13-.62a.15.15,0,0,1,0-.1l.09-.09a.51.51,0,0,1,.13-.09l.12,0Zm-3,4.16a1.29,1.29,0,0,0,.06-.4,1.35,1.35,0,0,0-.06-.41A3.59,3.59,0,0,0,49,7.09a1.54,1.54,0,0,0-.22-.31l-.28-.25a2.16,2.16,0,0,0-.31-.19,1.77,1.77,0,0,0-.38-.09,3.33,3.33,0,0,0-.46,0,2.2,2.2,0,0,0-.84.16,2.79,2.79,0,0,0-.72.4,2.29,2.29,0,0,0-.53.62,2.35,2.35,0,0,0-.28.87,1.35,1.35,0,0,0-.06.41,1.29,1.29,0,0,0,.06.4c0,.13.09.25.13.37a.83.83,0,0,0,.18.32l.28.25a1.16,1.16,0,0,0,.35.18,2.15,2.15,0,0,0,.4.09,1.94,1.94,0,0,0,.4,0,2.59,2.59,0,0,0,.91-.16,2.72,2.72,0,0,0,.71-.4,2.34,2.34,0,0,0,.53-.63A2.23,2.23,0,0,0,49.14,8.27Zm5.54-8a.27.27,0,0,1,0-.12l.06-.1L54.86,0a.47.47,0,0,1,.19,0H57.1l.13,0a.47.47,0,0,1,.12.09.51.51,0,0,1,.09.16.5.5,0,0,1,0,.16l-1.8,11.44a1.71,1.71,0,0,0-.09.22.27.27,0,0,1-.13.15.54.54,0,0,1-.18.1.78.78,0,0,1-.22,0H53.18l-.15,0a.19.19,0,0,1-.13-.1l-.06-.12a.27.27,0,0,1,0-.12Z" fill="#fff"/>
    </g>
  </g>
</svg>
