<svg xmlns="http://www.w3.org/2000/svg" width="21.64" height="20.69" viewBox="0 0 21.64 20.69">
  <title>icon-star</title>
  <g id="Layer_2" data-name="Layer 2">
    <g id="Guides">
      <path d="M11.89.78l2,6.26h6.59a1.13,1.13,0,0,1,.66,2L15.84,13l2,6.26a1.12,1.12,0,0,1-1.73,1.26L10.82,16.6,5.49,20.47a1.12,1.12,0,0,1-1.73-1.26L5.8,13,.47,9.08a1.13,1.13,0,0,1,.66-2H7.71l2-6.26A1.12,1.12,0,0,1,11.89.78Z" fill="#fff"/>
    </g>
  </g>
</svg>
