<svg xmlns="http://www.w3.org/2000/svg" width="246.7" height="195" viewBox="0 0 246.7 195">
  <title>blick-rewards</title>
  <g id="Layer_2" data-name="Layer 2">
    <g id="Guides">
      <g>
        <path d="M208.3,144.9A96.9,96.9,0,0,1,168.2,184,93.8,93.8,0,0,1,136,194.1a96.1,96.1,0,0,1-54.9-8.6,98.7,98.7,0,0,1-41.1-37c-2.4-3.9,1.5-4.1,3.7-.6a90.9,90.9,0,0,0,11.5,14.7A93.2,93.2,0,0,0,99,188.4a86.6,86.6,0,0,0,21.5,3.1c23.3.5,44.1-6.5,62.2-21.2a91.3,91.3,0,0,0,21.8-25.5c2.3-3.9,4.7-1.4,3.8.1Z" fill="#fff"/>
        <path d="M211.6,56.5l-3.5-.4a1,1,0,0,1-.7-.6A91.4,91.4,0,0,0,199,41.8c-14.3-19.1-33.1-31.3-56.5-36.4a86,86,0,0,0-18.2-2Q86.5,3.3,58.9,28.8a92.2,92.2,0,0,0-23,33.5,1.2,1.2,0,0,1-1.1.8l-3,.4C41.6,35.3,70.2,5.5,111.6.7c47.6-5.5,85.3,23,100,55.8Z" fill="#fff"/>
        <path d="M88.6,38.6h7a6,6,0,0,1,4,1.3,4,4,0,0,1,1,2.6h0a3.6,3.6,0,0,1-2,3.3,3.7,3.7,0,0,1,2.8,3.7h0c0,2.8-2.2,4.1-5.6,4.1H88.6v-15Zm6.3,6.1c1.5,0,2.4-.5,2.4-1.6h0c0-1-.8-1.6-2.2-1.6H91.9v3.2Zm.9,6c1.5,0,2.3-.5,2.3-1.6h0c0-1-.7-1.7-2.4-1.7H91.9v3.3Z" fill="#fff"/>
        <polygon points="104.1 38.6 107.4 38.6 107.4 50.6 114.9 50.6 114.9 53.6 104.1 53.6 104.1 38.6 104.1 38.6" fill="#fff"/>
        <polygon points="117.6 38.6 120.9 38.6 120.9 53.6 117.6 53.6 117.6 38.6 117.6 38.6" fill="#fff"/>
        <path d="M124,46.2h0a8.1,8.1,0,0,1,13.7-5.4l-2.1,2.4a5.2,5.2,0,0,0-3.8-1.7,4.5,4.5,0,0,0-4.4,4.7h0a4.4,4.4,0,0,0,4.4,4.7,5.1,5.1,0,0,0,3.9-1.7l2.1,2.1a7.4,7.4,0,0,1-6.1,2.7,7.6,7.6,0,0,1-7.7-7.7Z" fill="#fff"/>
        <polygon points="140.5 38.6 143.8 38.6 143.8 45.2 149.9 38.6 153.9 38.6 147.7 45 154.1 53.6 150.2 53.6 145.5 47.2 143.8 49 143.8 53.6 140.5 53.6 140.5 38.6 140.5 38.6" fill="#fff"/>
        <path d="M154.2,40.5h0a1.9,1.9,0,0,1,1.9-1.9,2,2,0,0,1,2,1.9h0a2,2,0,0,1-2,2,1.9,1.9,0,0,1-1.9-2Zm3.6,0h0a1.7,1.7,0,0,0-3.4,0h0a1.7,1.7,0,1,0,3.4,0Zm-2.5-1.1h.9a.9.9,0,0,1,.7.3c.1.1.1.2.1.4h0c0,.4-.1.6-.4.7l.5.7h-.5l-.5-.6h-.3v.6h-.5V39.4Zm.9,1.1c.3,0,.4-.2.4-.3h0a.4.4,0,0,0-.4-.4h-.4v.7Z" fill="#fff"/>
        <g>
          <path d="M68.6,70.7h0A7.5,7.5,0,0,1,76.4,63a7.7,7.7,0,0,1,5.9,2.3l-2.1,2.4A5.3,5.3,0,0,0,76.4,66,4.5,4.5,0,0,0,72,70.6h0a4.4,4.4,0,0,0,4.4,4.7,5.3,5.3,0,0,0,3.9-1.8l2.1,2.1a7.4,7.4,0,0,1-6.1,2.7A7.6,7.6,0,0,1,68.6,70.7Z" fill="#fff"/>
          <path d="M85,63.2h6.9a6.2,6.2,0,0,1,4.3,1.5,5,5,0,0,1,1.3,3.5h0a4.6,4.6,0,0,1-3.2,4.6l3.6,5.4H94.1l-3.2-4.8H88.3v4.8H85Zm6.6,7.3c1.6,0,2.6-.9,2.6-2.1h0c0-1.4-1-2.1-2.6-2.1H88.3v4.3Z" fill="#fff"/>
          <path d="M100.5,63.2h11.2v2.9h-8v3.1h7.1v2.9h-7.1v3.1h8.1v3H100.5Z" fill="#fff"/>
          <path d="M119.9,63.1h3l6.4,15.1h-3.4l-1.4-3.4h-6.3l-1.4,3.4h-3.3Zm3.4,8.8-1.9-4.8-2,4.8Z" fill="#fff"/>
        </g>
        <g>
          <path d="M133.2,66.3h-4.6V63.2H141v3.1h-4.5V78.2h-3.3Z" fill="#fff"/>
          <path d="M143.7,63.2H147v15h-3.3Z" fill="#fff"/>
          <path d="M149.4,63.2h3.7L157,73.7l3.9-10.5h3.5l-6,15.1h-2.9Z" fill="#fff"/>
          <path d="M166.7,63.2H178v2.9h-8v3.1h7v2.9h-7v3.1h8.1v3H166.7Z" fill="#fff"/>
        </g>
        <path d="M203.3,106.1l-.3.6a28.7,28.7,0,0,1-3.9,5.9l-.3.5c-1.4,2.5-2.8,5-4.3,7.3a23.5,23.5,0,0,1-4.5,5.4,6.6,6.6,0,0,1-9.4-.2,3.3,3.3,0,0,1-1.1-2,10.3,10.3,0,0,1,.4-6.7,28.7,28.7,0,0,1,4.8-8.5c2.2-2.5,7.2-4.6,11.2-2,.9.6,1.7,1.3,2.7,2.1l.8-1.4c1.5-2.4,3-4.8,4.4-7.3s2.6-4.4,3.9-6.7,2.7-4.9,4.3-7.1,3-5.6,4.5-8.4l2.7-4.6.3-.8,2-4.2c.3-.6,2.3-1,2.8-.7s2.7,1.9,2.9,3.7.1.5.1.8c-1.1,3.4-1.9,6.9-3.7,10l-3.8,7.1c-.6,1.2-1.2,2.4-1.7,3.7s-2.1,4.7-3.1,7-5.3,12.8-5.7,14.9-3.1,9.4-2.6,12.3c.2,1.1.6,1.3,1.7,1.5a7.4,7.4,0,0,0,5.9-1.9c2-1.7,4-3.4,5.9-5.3s5.8-6.3,8.5-9.6,4.2-4.7,6.2-7.1c.6-.8,1-1.7,1.5-2.4a26.6,26.6,0,0,1,2.8-3.8c1.6-1.7,3.7-1.9,5.9-1.6a2.1,2.1,0,0,1,1.4,1.2.9.9,0,0,1-.5,1.5,3.3,3.3,0,0,0-2.2,2.5c-.2.7-.5,1.3-.7,2-1.3,2.9-1.2,5.9-1.2,9s-.1,5.2,0,7.9a9.4,9.4,0,0,1-2.6,6.1l-1.7,1.9a10.2,10.2,0,0,1-3,1.9,20.3,20.3,0,0,1-4.9,1,6.1,6.1,0,0,1-3-.2,3.4,3.4,0,0,1-2.2-3.8,1.5,1.5,0,0,1,.8-.8,2.2,2.2,0,0,1,1.1-.5c.7.2,1.4.5,1.4,1.6s.5.9.8,1.4a4,4,0,0,0,1.3-.7,17.2,17.2,0,0,0,4.3-9.1c.5-3.5.4-6.9.7-10.5-.3.2-.6.3-.7.5l-7.8,8.6c-1.8,2-3.4,4.1-5.4,6s-6.1,5.6-10.4,6.5a7.9,7.9,0,0,1-8.8-4.9,14.3,14.3,0,0,1-.7-8.9c.8-3,1.5-5.9,2.2-8.9l.3-1.5-.3-.3Zm-6.7,5.3a12.6,12.6,0,0,0-.7-1.6c-1.5-2-3-2.2-4.3-.5a1.8,1.8,0,0,0-.5.7c-.9,1.9-2.3,3.4-3.1,5.3a40.4,40.4,0,0,0-2.7,7.6,3,3,0,0,0,.1,2.1,3.9,3.9,0,0,0,3-1.2c1.2-1.5,2.5-2.9,3.5-4.4s3.1-5.3,4.7-8Z" fill="#fff"/>
        <path d="M7.8,114.2l-4.3-1.7A10.1,10.1,0,0,1,1,111.1,3.5,3.5,0,0,1,.4,107a3.1,3.1,0,0,1,3.1-1.8,8.1,8.1,0,0,1,5.2,1.3l1.1.5c.3-1.3.6-2.5,1-3.7l3.6-10.5c1-2.9,1.9-5.8,3.1-8.7a43.1,43.1,0,0,1,2.6-4.7,8.3,8.3,0,0,1,1.3-1.8c1-.9,2.2-.9,2.9.2a3.4,3.4,0,0,0,2.9,1.4,41.3,41.3,0,0,0,5,.1l4.7-.3a20.9,20.9,0,0,1,8.2,1.1l1,.7c1.9,1.9,3.8,3.7,4.5,6.5a7.2,7.2,0,0,1,.2,2.5c.5,5-2.3,10.6-4.5,12.9a35.9,35.9,0,0,1-9.2,6.6A30.5,30.5,0,0,1,32,111l-7.9,2-3.2.4-2,.2,2.2,2.4,7.8,7.2c1.2,1,2.3,2.2,3.6,3.1,3.8,2.7,7.6,5.4,12.1,7.1l.8.4a17.3,17.3,0,0,0,10.7,1.9,9.7,9.7,0,0,0,3.3-1.4,12.4,12.4,0,0,0,3.9-2.9,3.4,3.4,0,0,1,1.8-1.1,6,6,0,0,1,3.5.4c.9.5,1.1,1.2.5,2a13,13,0,0,1-4.6,4.4,13.7,13.7,0,0,1-4.9,1.8,20.9,20.9,0,0,1-5.6.1,32.2,32.2,0,0,1-6.9-2,67.6,67.6,0,0,1-15.4-7.8,57.3,57.3,0,0,1-8.3-6.4l-5.5-5.2-3.4-3c-.2-.2-.5-.2-1-.3s-2.5,9.9-2.8,11.3-1,4.1-1.6,6.1-1.3,4.5-1.9,6.7a1.9,1.9,0,0,1-1.6,1.5,5,5,0,0,1-4.1-1.3c1.4-8.3,4.2-16.3,6.3-24.4ZM25.1,81.4C24,84,23,86.6,22,89.1s-2.5,6.6-3.6,9.9a58.7,58.7,0,0,1-2.6,8.1,7.7,7.7,0,0,0-.7,2.6,1,1,0,0,0,.4,1,1.9,1.9,0,0,0,1.3.2c2.9-.3,5.5-1.5,8.1-2.5a37.1,37.1,0,0,0,10.3-5.7,33.9,33.9,0,0,0,6.3-6.8,19.4,19.4,0,0,0,3.6-9.6,4,4,0,0,0-3.9-4.7H27.4l-2.3-.3Zm-21.6,26c-.6,1.7-.5,2,.8,2.9a14.4,14.4,0,0,0,4,1.8l.4-1.3a1.3,1.3,0,0,0-.5-1.5c-1.5-.8-2.9-1.8-4.7-1.9Z" fill="#fff"/>
        <path d="M169.5,132l1.9.9a2.1,2.1,0,0,1-2.5,2.3,7.9,7.9,0,0,1-4.1-1.7c-1.4-.9-1.6-2.4-1.7-3.9a19.5,19.5,0,0,1,1.1-7.6c.6-1.7,1.4-3.4,2.1-5.1l3.7-9.4a97,97,0,0,1,5.8-12.7c.1-.1,0-.2,0-.3-4.5-.3-4.6-.9-7.8-3.3-.8,1.7-1.6,3.3-2.5,5l-1.8,3.8-2.3,4.6c-1.3,2.4-2.7,4.7-4,7s-1.9,3.8-3,5.7-3.4,5.6-5.3,8.3a10.1,10.1,0,0,1-4.1,3.5,4.8,4.8,0,0,1-4.5.1l-2.4-1.5a4.1,4.1,0,0,1-1.5-3.3,30.4,30.4,0,0,1,1.6-9.4l1.8-5a1,1,0,0,0-.2-.6c-.9,1.1-1.8,2.2-2.6,3.4s-2.6,4-3.9,5.9-1.6,1.9-2.4,2.9l-.7.8c-.8,2-4.1,2.9-6.1,2.5s-4.8-4.1-4.5-6.8A22.5,22.5,0,0,1,124,107c1.7-2.4,4.2-3.3,6.9-3.7l1.2-.2a2.9,2.9,0,0,1,2.4.2c1.5.9,3.2,1.4,4.4,3,.4-.6,5-5.3,6.1-6.8s2.5-1,3.7-.1,2,2.8,1.1,4.9-.6,1.8-.9,2.7l-.3.7c-1.2,2.9-2.2,5.9-3.6,8.6a33.7,33.7,0,0,0-2.2,6.8,27,27,0,0,0-.5,4.1,4.7,4.7,0,0,0,3.7-2.1c1.3-1.9,2.6-3.8,3.8-5.8s3.1-5.4,4.6-8.1a57,57,0,0,1,3.2-6c1.9-2.9,3-6.1,4.6-9.1a80.2,80.2,0,0,0,3.6-8.5,9,9,0,0,0,.3-1.6,2.1,2.1,0,0,1,2.7-1.6c.6.3,1.1.6,1,1.4a4.5,4.5,0,0,1-.3,1.6,1.7,1.7,0,0,0,.3,2,6.7,6.7,0,0,0,5.2,2.8,7.6,7.6,0,0,1,6.8,4.3,1.4,1.4,0,0,1-.1,1.9,9,9,0,0,0-1.2,2.4c-1.6,3.6-3.2,7.2-4.7,10.8-.3.6-.6,1.1-.8,1.6-1,2.3-1.8,4.6-2.7,6.9s-2,6.5-2.3,7.2a20,20,0,0,0-.4,2.4,17.7,17.7,0,0,0-.1,2.3Zm-43.9-9.3a11.6,11.6,0,0,0,1.4-.9l3.1-3.8c2-2.6,3.8-5.3,5.8-8a3,3,0,0,0,.1-2.9,2,2,0,0,0-2.2-1,2.6,2.6,0,0,0-2.3,1l-1.3,1.8a14.2,14.2,0,0,0-2.5,4.7l-1.8,5.4a7.5,7.5,0,0,0-.3,3.7Z" fill="#fff"/>
        <path d="M98.5,129.8a1.8,1.8,0,0,0,2.2-.4c2.2-2.2,4.5-4.4,5.9-7.3a13,13,0,0,1,1-1.5c.5-.8,1-1.6,1.4-2.4a22.4,22.4,0,0,0,1.3-2.7,34.7,34.7,0,0,0,3.5-8.4c.5-2,.8-4.1,1.2-6.2l-.7-.6a.8.8,0,0,1,.1-1.3,2,2,0,0,1,2.2-.3,3.2,3.2,0,0,1,1.7,2.7,26.5,26.5,0,0,1-2.4,10.7l-1.1,2.7-1,1.7-.5.7c-.9,2.5-2.6,4.5-3.8,6.8a18.5,18.5,0,0,1-5.2,6.3,10,10,0,0,1-4.6,2,7,7,0,0,1-7.6-5.9c-.3-2.6.4-5,1-7.5a7.5,7.5,0,0,0,.5-1.6h-.2l-3.9,5.8-2,3.4a11,11,0,0,1-4.2,4.1,4.4,4.4,0,0,1-3.4.4,21.9,21.9,0,0,1-3.8-1.7,5.2,5.2,0,0,1-2-3.4,14.5,14.5,0,0,1-.1-3.6,41.9,41.9,0,0,1,2.9-10.5,4.5,4.5,0,0,0,.2-.8l-.7.5L70,118.4a59,59,0,0,1-5.1,4.9,8.7,8.7,0,0,1-5.2,1.6,12.7,12.7,0,0,1-7.8-2,6.7,6.7,0,0,1-3.1-5.8,16.8,16.8,0,0,1,5.5-12.9,16.1,16.1,0,0,1,6.5-3.3,5,5,0,0,1,5.7,2.7,2.5,2.5,0,0,1,.3,1.5,6,6,0,0,1-1.6,4.4,15.4,15.4,0,0,1-2.8,2.9,9.3,9.3,0,0,1-5,2.1l-2,.2c-1,1.5-.9,3.2-.7,4.9s1.3,3,3.4,3a8,8,0,0,0,5.4-1.5,79.9,79.9,0,0,0,9.6-9.7l2.4-2.6,7.8-9.1a6.1,6.1,0,0,1,1.6-1.2,1.7,1.7,0,0,1,2.1.4l1.6,1.6a2.1,2.1,0,0,1,0,2.5c-.8,1.5-1.6,3.2-2.3,4.7s-2.6,5.5-3.8,8.3a53.1,53.1,0,0,0-2.1,6.4,28.8,28.8,0,0,0-.9,4,2.4,2.4,0,0,0,0,1.2c.3,1.3.9,1.5,2,.8a14.2,14.2,0,0,0,3.3-3.6l2.9-4,2.1-3.4,3.5-5.5,4.8-7.7c.8-1.3,1.7-2.4,2.6-3.6a2.5,2.5,0,0,1,2.7-.7c1.6.3,2.5,1.2,3.2,3.2s-1.5,3.3-2.1,4.9c-1.5,3.9-3.1,7.7-4.4,11.6a45.4,45.4,0,0,0-1.8,6.3,7.5,7.5,0,0,0,.2,3.9ZM55.9,112.2h1l2.7-.9a7.5,7.5,0,0,0,3.4-3.2,8.4,8.4,0,0,0,.7-2.4,2.2,2.2,0,0,0-1.3-2.2c-.7-.5-1.2.3-1.7.6a4.8,4.8,0,0,0-.9,1.1,22.9,22.9,0,0,0-3.9,7Z" fill="#fff"/>
      </g>
    </g>
  </g>
</svg>
